module sender

go 1.19

require github.com/go-playground/validator/v10 v10.11.2

require (
	github.com/andybalholm/brotli v1.0.4 // indirect
	github.com/fsnotify/fsnotify v1.6.0 // indirect
	github.com/go-playground/locales v0.14.1 // indirect
	github.com/go-playground/universal-translator v0.18.1 // indirect
	github.com/gofiber/fiber/v2 v2.42.0 // indirect
	github.com/google/uuid v1.3.0 // indirect
	github.com/hashicorp/hcl v1.0.0 // indirect
	github.com/klauspost/compress v1.15.9 // indirect
	github.com/leodido/go-urn v1.2.1 // indirect
	github.com/magiconair/properties v1.8.7 // indirect
	github.com/mattn/go-colorable v0.1.13 // indirect
	github.com/mattn/go-isatty v0.0.17 // indirect
	github.com/mattn/go-runewidth v0.0.14 // indirect
	github.com/mitchellh/mapstructure v1.5.0 // indirect
	github.com/pelletier/go-toml/v2 v2.0.6 // indirect
	github.com/philhofer/fwd v1.1.1 // indirect
	github.com/rabbitmq/amqp091-go v1.6.1 // indirect
	github.com/rivo/uniseg v0.2.0 // indirect
	github.com/savsgio/dictpool v0.0.0-20221023140959-7bf2e61cea94 // indirect
	github.com/savsgio/gotils v0.0.0-20220530130905-52f3993e8d6d // indirect
	github.com/spf13/afero v1.9.3 // indirect
	github.com/spf13/cast v1.5.0 // indirect
	github.com/spf13/jwalterweatherman v1.1.0 // indirect
	github.com/spf13/pflag v1.0.5 // indirect
	github.com/spf13/viper v1.15.0 // indirect
	github.com/subosito/gotenv v1.4.2 // indirect
	github.com/tinylib/msgp v1.1.6 // indirect
	github.com/valyala/bytebufferpool v1.0.0 // indirect
	github.com/valyala/fasthttp v1.44.0 // indirect
	github.com/valyala/tcplisten v1.0.0 // indirect
	golang.org/x/crypto v0.5.0 // indirect
	golang.org/x/sys v0.4.0 // indirect
	golang.org/x/text v0.6.0 // indirect
	gopkg.in/ini.v1 v1.67.0 // indirect
	gopkg.in/yaml.v3 v3.0.1 // indirect
)
